TABLE Database
Logiciel	Heavydyn
VersionBDD	1
TABLE Dossiers
Nom	bailleau croisé 1
Client	
ContactClient	
Dossier	
Localite	
Date	22/07/2019
Ouvrage	
Commentaire	
Smoothing	True
UnitDeplNom	mm
UnitDeplRatio	1,0E-003
UnitForceNom	N
UnitForceRatio	1,0E+000
TABLE PVs
Nom	pv1
Date	22/07/2019
Operateur	COLAS IDFN
Voie	
Sens	
PartieOuvrage	
Climat	
Commentaire	
TABLE Sequences
Nom	croise-1
TABLE Etapes
Numero	2
DansRapport	True
TypeDrop	Force
ValeurDrop	55000
TABLE Etapes
Numero	3
DansRapport	True
TypeDrop	Force
ValeurDrop	60000
TABLE Etapes
Numero	4
DansRapport	True
TypeDrop	Force
ValeurDrop	65000
TABLE Plateformes
Type	
Couche	
Materiau	
GTR	
Etat	
ClassDeflection	
SeuilDeflection	0,00
TABLE Machines
Serial	HVY-102B
Attribution	CG Martinique           
MAC	60-96-08-63-3E-F8-17-4A
LicStart	22/09/2018
LicEnd	22/09/2050
CertStart	22/09/2018
CertEnd	22/09/2020
TABLE ParamsAcqu
NbSamples	1500
FreqAcqu	30000,00
PreTrig	0,01
TABLE Calibrations
Infos	Default values calibration
Date	20/06/2018
DPlaque	0,300
PositionCapteurs	-300,000	-200,000	0,000	200,000	300,000	600,000	900,000	1200,000	1500,000	1800,000	2100,000
IndexD0	2
TABLE Voies
VoieAcqu	0
ChannelAdc	15
Distance	0
Nom	DZWY
Type	LoadCell
Gain	4,103E-008
V0	0,000E+000
TABLE Voies
VoieAcqu	1
ChannelAdc	1
Distance	-300
Nom	FG-133
Type	Geophone
Gain	2,985E+001
V0	0,000E+000
TABLE Voies
VoieAcqu	2
ChannelAdc	2
Distance	-200
Nom	FG-135
Type	Geophone
Gain	3,053E+001
V0	0,000E+000
TABLE Voies
VoieAcqu	3
ChannelAdc	0
Distance	0
Nom	FG-150
Type	Geophone
Gain	3,087E+001
V0	0,000E+000
TABLE Voies
VoieAcqu	4
ChannelAdc	3
Distance	200
Nom	FG-136
Type	Geophone
Gain	3,138E+001
V0	0,000E+000
TABLE Voies
VoieAcqu	5
ChannelAdc	4
Distance	300
Nom	FG-137
Type	Geophone
Gain	3,136E+001
V0	0,000E+000
TABLE Voies
VoieAcqu	6
ChannelAdc	5
Distance	600
Nom	FG-139
Type	Geophone
Gain	3,063E+001
V0	0,000E+000
TABLE Voies
VoieAcqu	7
ChannelAdc	8
Distance	900
Nom	FG-140
Type	Geophone
Gain	3,045E+001
V0	0,000E+000
TABLE Voies
VoieAcqu	8
ChannelAdc	9
Distance	1200
Nom	FG-141
Type	Geophone
Gain	3,102E+001
V0	0,000E+000
TABLE Voies
VoieAcqu	9
ChannelAdc	10
Distance	1500
Nom	FG-142
Type	Geophone
Gain	3,080E+001
V0	0,000E+000
TABLE Voies
VoieAcqu	10
ChannelAdc	13
Distance	1800
Nom	FG-143
Type	Geophone
Gain	3,083E+001
V0	0,000E+000
TABLE Voies
VoieAcqu	11
ChannelAdc	14
Distance	2100
Nom	FG-144
Type	Geophone
Gain	3,092E+001
V0	0,000E+000
TABLE Sensors
Nom	AirTemp
Type	AirTemp
Gain	3,850E-001
V0	1,000E+002
TABLE Sensors
Nom	SurfTemp
Type	SurfTemp
Gain	1,000E+000
V0	0,000E+000
TABLE Sensors
Nom	DMI
Type	Dmi
Gain	1,800E+002
V0	0,000E+000
TABLE ResultatsPV
Points_Nombre	20
PointsOK_Nombre	20
PointsOK_Max	0,0
PointsOK_Min	0,0
PointsOK_Moyenne	0,0
PointsOK_Std	0,0
PointsPass_Nombre	0
PointsFailNombre	20
TABLE ArrayResult
Latitude	48,370371	48,370344	48,370311	48,370278	48,370245	48,370205	48,370153	48,370111	48,370054	48,370003	48,369883	48,369853	48,369827	48,369794	48,369774	48,369740	48,369703	48,369661	48,369621	48,369583
Longitude	1,334833	1,334811	1,334778	1,334762	1,334735	1,334699	1,334654	1,334621	1,334578	1,334542	1,334434	1,334402	1,334382	1,334360	1,334338	1,334318	1,334282	1,334255	1,334219	1,334196
Chainage	1517	1521	1526	1530	1535	1539	1546	1552	1559	1566	1583	1586	1589	1593	1597	1601	1607	1612	1617	1623
Tair	26,2	26,0	25,6	25,8	26,0	26,0	26,4	26,4	26,6	26,6	27,0	27,0	27,0	26,8	26,6	26,4	26,6	26,4	26,2	26,0
Tsurf	24,7	24,0	25,5	26,4	30,5	32,0	32,2	33,0	33,1	32,5	29,4	30,8	31,3	31,1	31,5	31,2	31,8	26,0	25,0	24,0
Tman	0,0	0,0	0,0	0,0	0,0	0,0	0,0	0,0	0,0	0,0	0,0	0,0	0,0	0,0	0,0	0,0	0,0	0,0	0,0	0,0
Forcemax	63847	63460	62756	62917	62300	62432	62071	61192	61981	62696	62620	62641	62623	62939	62476	62780	62093	62447	62900	62153
D_0300	0,524	0,568	0,581	0,568	0,597	0,621	0,712	0,752	0,715	0,624	0,675	0,645	0,623	0,607	0,608	0,653	0,677	0,679	0,628	0,626
D_0200	0,609	0,668	0,719	0,712	0,784	0,774	0,876	0,968	0,911	0,810	0,854	0,820	0,749	0,752	0,749	0,817	0,833	0,835	0,743	0,765
D0000	0,745	0,864	1,001	0,963	1,060	1,021	1,198	1,279	1,210	1,119	1,121	1,130	1,057	1,044	1,026	1,103	1,127	1,105	0,945	0,984
D0200	0,578	0,658	0,695	0,679	0,745	0,740	0,848	0,961	0,868	0,819	0,843	0,792	0,762	0,741	0,751	0,797	0,821	0,789	0,730	0,735
D0300	0,492	0,549	0,543	0,522	0,572	0,557	0,632	0,686	0,643	0,607	0,641	0,601	0,595	0,569	0,583	0,623	0,631	0,615	0,582	0,575
D0600	0,272	0,285	0,254	0,241	0,261	0,261	0,274	0,286	0,271	0,251	0,264	0,255	0,268	0,255	0,260	0,268	0,284	0,294	0,286	0,282
D0900	0,152	0,144	0,146	0,129	0,134	0,132	0,136	0,138	0,138	0,134	0,125	0,127	0,123	0,126	0,125	0,126	0,138	0,147	0,152	0,152
D1200	0,086	0,081	0,075	0,074	0,075	0,072	0,076	0,082	0,081	0,080	0,074	0,077	0,073	0,076	0,075	0,076	0,083	0,083	0,088	0,090
D1500	0,054	0,050	0,049	0,048	0,048	0,046	0,049	0,056	0,052	0,056	0,053	0,054	0,052	0,056	0,053	0,056	0,060	0,060	0,062	0,063
D1800	0,036	0,040	0,035	0,035	0,035	0,034	0,036	0,041	0,040	0,042	0,041	0,042	0,041	0,043	0,043	0,044	0,047	0,045	0,047	0,048
D2100	0,031	0,029	0,026	0,027	0,026	0,026	0,028	0,033	0,030	0,033	0,033	0,035	0,034	0,034	0,035	0,033	0,038	0,034	0,036	0,036
TABLE ReportPoints
Numero	1
Latitude	48,370371
Longitude	1,334833
DOP	1,8
Chainage	1517
Tair	26,2
Tsurf	24,7
Tman	0,0
Commentaire	
Date	22/07/2019 10:10
TABLE Drops
Numero	2
PulseTime	29,3
ForceMax	53516
D_0300	0,437
D_0200	0,510
D0000	0,631
D0200	0,484
D0300	0,410
D0600	0,223
D0900	0,124
D1200	0,071
D1500	0,044
D1800	0,031
D2100	0,026
TABLE Drops
Numero	3
PulseTime	29,1
ForceMax	58408
D_0300	0,476
D_0200	0,556
D0000	0,684
D0200	0,527
D0300	0,448
D0600	0,246
D0900	0,137
D1200	0,078
D1500	0,049
D1800	0,034
D2100	0,027
TABLE Drops
Numero	4
PulseTime	28,8
ForceMax	63847
D_0300	0,524
D_0200	0,609
D0000	0,745
D0200	0,578
D0300	0,492
D0600	0,272
D0900	0,152
D1200	0,086
D1500	0,054
D1800	0,036
D2100	0,031
TABLE ReportPoints
Numero	2
Latitude	48,370344
Longitude	1,334811
DOP	1,8
Chainage	1521
Tair	26,0
Tsurf	24,0
Tman	0,0
Commentaire	
Date	22/07/2019 10:11
TABLE Drops
Numero	2
PulseTime	29,5
ForceMax	53779
D_0300	0,467
D_0200	0,558
D0000	0,722
D0200	0,547
D0300	0,457
D0600	0,236
D0900	0,121
D1200	0,067
D1500	0,045
D1800	0,033
D2100	0,024
TABLE Drops
Numero	3
PulseTime	29,2
ForceMax	58280
D_0300	0,515
D_0200	0,607
D0000	0,776
D0200	0,604
D0300	0,500
D0600	0,257
D0900	0,131
D1200	0,075
D1500	0,047
D1800	0,038
D2100	0,025
TABLE Drops
Numero	4
PulseTime	29,0
ForceMax	63460
D_0300	0,568
D_0200	0,668
D0000	0,864
D0200	0,658
D0300	0,549
D0600	0,285
D0900	0,144
D1200	0,081
D1500	0,050
D1800	0,040
D2100	0,029
TABLE ReportPoints
Numero	3
Latitude	48,370311
Longitude	1,334778
DOP	1,8
Chainage	1526
Tair	25,6
Tsurf	25,5
Tman	0,0
Commentaire	
Date	22/07/2019 10:11
TABLE Drops
Numero	2
PulseTime	29,7
ForceMax	53188
D_0300	0,487
D_0200	0,600
D0000	0,857
D0200	0,584
D0300	0,453
D0600	0,211
D0900	0,119
D1200	0,064
D1500	0,041
D1800	0,029
D2100	0,023
TABLE Drops
Numero	3
PulseTime	29,4
ForceMax	58009
D_0300	0,531
D_0200	0,658
D0000	0,942
D0200	0,635
D0300	0,497
D0600	0,230
D0900	0,127
D1200	0,070
D1500	0,044
D1800	0,032
D2100	0,025
TABLE Drops
Numero	4
PulseTime	29,2
ForceMax	62756
D_0300	0,581
D_0200	0,719
D0000	1,001
D0200	0,695
D0300	0,543
D0600	0,254
D0900	0,146
D1200	0,075
D1500	0,049
D1800	0,035
D2100	0,026
TABLE ReportPoints
Numero	4
Latitude	48,370278
Longitude	1,334762
DOP	1,8
Chainage	1530
Tair	25,8
Tsurf	26,4
Tman	0,0
Commentaire	
Date	22/07/2019 10:12
TABLE Drops
Numero	2
PulseTime	29,7
ForceMax	53287
D_0300	0,474
D_0200	0,597
D0000	0,830
D0200	0,573
D0300	0,438
D0600	0,201
D0900	0,107
D1200	0,062
D1500	0,040
D1800	0,029
D2100	0,023
TABLE Drops
Numero	3
PulseTime	29,5
ForceMax	57929
D_0300	0,519
D_0200	0,650
D0000	0,869
D0200	0,621
D0300	0,477
D0600	0,223
D0900	0,117
D1200	0,067
D1500	0,043
D1800	0,032
D2100	0,026
TABLE Drops
Numero	4
PulseTime	29,2
ForceMax	62917
D_0300	0,568
D_0200	0,712
D0000	0,963
D0200	0,679
D0300	0,522
D0600	0,241
D0900	0,129
D1200	0,074
D1500	0,048
D1800	0,035
D2100	0,027
TABLE ReportPoints
Numero	5
Latitude	48,370245
Longitude	1,334735
DOP	1,8
Chainage	1535
Tair	26,0
Tsurf	30,5
Tman	0,0
Commentaire	
Date	22/07/2019 10:13
TABLE Drops
Numero	2
PulseTime	29,9
ForceMax	52649
D_0300	0,500
D_0200	0,655
D0000	0,910
D0200	0,625
D0300	0,478
D0600	0,219
D0900	0,111
D1200	0,062
D1500	0,039
D1800	0,029
D2100	0,023
TABLE Drops
Numero	3
PulseTime	29,7
ForceMax	57626
D_0300	0,547
D_0200	0,718
D0000	1,010
D0200	0,683
D0300	0,524
D0600	0,240
D0900	0,122
D1200	0,069
D1500	0,044
D1800	0,032
D2100	0,026
TABLE Drops
Numero	4
PulseTime	29,4
ForceMax	62300
D_0300	0,597
D_0200	0,784
D0000	1,060
D0200	0,745
D0300	0,572
D0600	0,261
D0900	0,134
D1200	0,075
D1500	0,048
D1800	0,035
D2100	0,026
TABLE ReportPoints
Numero	6
Latitude	48,370205
Longitude	1,334699
DOP	1,8
Chainage	1539
Tair	26,0
Tsurf	32,0
Tman	0,0
Commentaire	
Date	22/07/2019 10:14
TABLE Drops
Numero	2
PulseTime	29,9
ForceMax	52688
D_0300	0,515
D_0200	0,648
D0000	0,866
D0200	0,618
D0300	0,464
D0600	0,217
D0900	0,108
D1200	0,060
D1500	0,039
D1800	0,029
D2100	0,022
TABLE Drops
Numero	3
PulseTime	29,7
ForceMax	57704
D_0300	0,568
D_0200	0,711
D0000	0,940
D0200	0,679
D0300	0,511
D0600	0,240
D0900	0,120
D1200	0,067
D1500	0,040
D1800	0,032
D2100	0,024
TABLE Drops
Numero	4
PulseTime	29,4
ForceMax	62432
D_0300	0,621
D_0200	0,774
D0000	1,021
D0200	0,740
D0300	0,557
D0600	0,261
D0900	0,132
D1200	0,072
D1500	0,046
D1800	0,034
D2100	0,026
TABLE ReportPoints
Numero	7
Latitude	48,370153
Longitude	1,334654
DOP	1,8
Chainage	1546
Tair	26,4
Tsurf	32,2
Tman	0,0
Commentaire	
Date	22/07/2019 10:14
TABLE Drops
Numero	2
PulseTime	30,2
ForceMax	52435
D_0300	0,595
D_0200	0,737
D0000	1,035
D0200	0,716
D0300	0,529
D0600	0,230
D0900	0,111
D1200	0,063
D1500	0,042
D1800	0,031
D2100	0,025
TABLE Drops
Numero	3
PulseTime	29,9
ForceMax	57124
D_0300	0,651
D_0200	0,802
D0000	1,108
D0200	0,777
D0300	0,577
D0600	0,250
D0900	0,123
D1200	0,070
D1500	0,047
D1800	0,034
D2100	0,028
TABLE Drops
Numero	4
PulseTime	29,7
ForceMax	62071
D_0300	0,712
D_0200	0,876
D0000	1,198
D0200	0,848
D0300	0,632
D0600	0,274
D0900	0,136
D1200	0,076
D1500	0,049
D1800	0,036
D2100	0,028
TABLE ReportPoints
Numero	8
Latitude	48,370111
Longitude	1,334621
DOP	1,8
Chainage	1552
Tair	26,4
Tsurf	33,0
Tman	0,0
Commentaire	
Date	22/07/2019 10:15
TABLE Drops
Numero	2
PulseTime	30,4
ForceMax	51412
D_0300	0,633
D_0200	0,816
D0000	1,152
D0200	0,804
D0300	0,577
D0600	0,239
D0900	0,114
D1200	0,068
D1500	0,046
D1800	0,034
D2100	0,028
TABLE Drops
Numero	3
PulseTime	30,3
ForceMax	56503
D_0300	0,696
D_0200	0,890
D0000	1,218
D0200	0,880
D0300	0,629
D0600	0,261
D0900	0,128
D1200	0,074
D1500	0,049
D1800	0,036
D2100	0,028
TABLE Drops
Numero	4
PulseTime	30,0
ForceMax	61192
D_0300	0,752
D_0200	0,968
D0000	1,279
D0200	0,961
D0300	0,686
D0600	0,286
D0900	0,138
D1200	0,082
D1500	0,056
D1800	0,041
D2100	0,033
TABLE ReportPoints
Numero	9
Latitude	48,370054
Longitude	1,334578
DOP	1,8
Chainage	1559
Tair	26,6
Tsurf	33,1
Tman	0,0
Commentaire	
Date	22/07/2019 10:16
TABLE Drops
Numero	2
PulseTime	30,2
ForceMax	52486
D_0300	0,599
D_0200	0,765
D0000	1,041
D0200	0,736
D0300	0,541
D0600	0,226
D0900	0,114
D1200	0,068
D1500	0,044
D1800	0,033
D2100	0,026
TABLE Drops
Numero	3
PulseTime	30,0
ForceMax	57115
D_0300	0,653
D_0200	0,834
D0000	1,115
D0200	0,795
D0300	0,589
D0600	0,248
D0900	0,126
D1200	0,075
D1500	0,050
D1800	0,037
D2100	0,029
TABLE Drops
Numero	4
PulseTime	29,7
ForceMax	61981
D_0300	0,715
D_0200	0,911
D0000	1,210
D0200	0,868
D0300	0,643
D0600	0,271
D0900	0,138
D1200	0,081
D1500	0,052
D1800	0,040
D2100	0,030
TABLE ReportPoints
Numero	10
Latitude	48,370003
Longitude	1,334542
DOP	1,8
Chainage	1566
Tair	26,6
Tsurf	32,5
Tman	0,0
Commentaire	
Date	22/07/2019 10:17
TABLE Drops
Numero	2
PulseTime	30,1
ForceMax	52700
D_0300	0,521
D_0200	0,683
D0000	0,970
D0200	0,692
D0300	0,511
D0600	0,210
D0900	0,111
D1200	0,067
D1500	0,047
D1800	0,036
D2100	0,029
TABLE Drops
Numero	3
PulseTime	29,8
ForceMax	57673
D_0300	0,571
D_0200	0,746
D0000	1,003
D0200	0,753
D0300	0,558
D0600	0,229
D0900	0,123
D1200	0,073
D1500	0,051
D1800	0,039
D2100	0,030
TABLE Drops
Numero	4
PulseTime	29,5
ForceMax	62696
D_0300	0,624
D_0200	0,810
D0000	1,119
D0200	0,819
D0300	0,607
D0600	0,251
D0900	0,134
D1200	0,080
D1500	0,056
D1800	0,042
D2100	0,033
TABLE ReportPoints
Numero	11
Latitude	48,369883
Longitude	1,334434
DOP	1,5
Chainage	1583
Tair	27,0
Tsurf	29,4
Tman	0,0
Commentaire	
Date	22/07/2019 10:22
TABLE Drops
Numero	2
PulseTime	29,9
ForceMax	52843
D_0300	0,569
D_0200	0,726
D0000	0,972
D0200	0,719
D0300	0,543
D0600	0,220
D0900	0,104
D1200	0,061
D1500	0,042
D1800	0,034
D2100	0,026
TABLE Drops
Numero	3
PulseTime	29,7
ForceMax	57750
D_0300	0,622
D_0200	0,792
D0000	1,035
D0200	0,781
D0300	0,593
D0600	0,242
D0900	0,114
D1200	0,068
D1500	0,049
D1800	0,038
D2100	0,030
TABLE Drops
Numero	4
PulseTime	29,4
ForceMax	62620
D_0300	0,675
D_0200	0,854
D0000	1,121
D0200	0,843
D0300	0,641
D0600	0,264
D0900	0,125
D1200	0,074
D1500	0,053
D1800	0,041
D2100	0,033
TABLE ReportPoints
Numero	12
Latitude	48,369853
Longitude	1,334402
DOP	1,5
Chainage	1586
Tair	27,0
Tsurf	30,8
Tman	0,0
Commentaire	
Date	22/07/2019 10:23
TABLE Drops
Numero	2
PulseTime	30,0
ForceMax	52634
D_0300	0,546
D_0200	0,701
D0000	0,976
D0200	0,678
D0300	0,506
D0600	0,208
D0900	0,105
D1200	0,063
D1500	0,044
D1800	0,034
D2100	0,028
TABLE Drops
Numero	3
PulseTime	29,8
ForceMax	57683
D_0300	0,594
D_0200	0,759
D0000	1,046
D0200	0,733
D0300	0,552
D0600	0,230
D0900	0,117
D1200	0,070
D1500	0,049
D1800	0,037
D2100	0,029
TABLE Drops
Numero	4
PulseTime	29,5
ForceMax	62641
D_0300	0,645
D_0200	0,820
D0000	1,130
D0200	0,792
D0300	0,601
D0600	0,255
D0900	0,127
D1200	0,077
D1500	0,054
D1800	0,042
D2100	0,035
TABLE ReportPoints
Numero	13
Latitude	48,369827
Longitude	1,334382
DOP	1,5
Chainage	1589
Tair	27,0
Tsurf	31,3
Tman	0,0
Commentaire	
Date	22/07/2019 10:23
TABLE Drops
Numero	2
PulseTime	29,8
ForceMax	53392
D_0300	0,530
D_0200	0,642
D0000	0,904
D0200	0,660
D0300	0,513
D0600	0,224
D0900	0,102
D1200	0,062
D1500	0,043
D1800	0,035
D2100	0,029
TABLE Drops
Numero	3
PulseTime	29,6
ForceMax	57677
D_0300	0,571
D_0200	0,693
D0000	0,990
D0200	0,708
D0300	0,549
D0600	0,243
D0900	0,113
D1200	0,066
D1500	0,047
D1800	0,037
D2100	0,029
TABLE Drops
Numero	4
PulseTime	29,3
ForceMax	62623
D_0300	0,623
D_0200	0,749
D0000	1,057
D0200	0,762
D0300	0,595
D0600	0,268
D0900	0,123
D1200	0,073
D1500	0,052
D1800	0,041
D2100	0,034
TABLE ReportPoints
Numero	14
Latitude	48,369794
Longitude	1,334360
DOP	1,5
Chainage	1593
Tair	26,8
Tsurf	31,1
Tman	0,0
Commentaire	
Date	22/07/2019 10:25
TABLE Drops
Numero	2
PulseTime	29,8
ForceMax	53047
D_0300	0,519
D_0200	0,639
D0000	0,894
D0200	0,634
D0300	0,484
D0600	0,215
D0900	0,104
D1200	0,063
D1500	0,046
D1800	0,036
D2100	0,029
TABLE Drops
Numero	3
PulseTime	29,6
ForceMax	57834
D_0300	0,560
D_0200	0,691
D0000	0,969
D0200	0,684
D0300	0,523
D0600	0,234
D0900	0,117
D1200	0,068
D1500	0,049
D1800	0,038
D2100	0,030
TABLE Drops
Numero	4
PulseTime	29,3
ForceMax	62939
D_0300	0,607
D_0200	0,752
D0000	1,044
D0200	0,741
D0300	0,569
D0600	0,255
D0900	0,126
D1200	0,076
D1500	0,056
D1800	0,043
D2100	0,034
TABLE ReportPoints
Numero	15
Latitude	48,369774
Longitude	1,334338
DOP	1,5
Chainage	1597
Tair	26,6
Tsurf	31,5
Tman	0,0
Commentaire	
Date	22/07/2019 10:26
TABLE Drops
Numero	2
PulseTime	30,0
ForceMax	52838
D_0300	0,522
D_0200	0,645
D0000	0,905
D0200	0,652
D0300	0,501
D0600	0,216
D0900	0,106
D1200	0,061
D1500	0,043
D1800	0,035
D2100	0,027
TABLE Drops
Numero	3
PulseTime	29,7
ForceMax	57667
D_0300	0,564
D_0200	0,698
D0000	0,968
D0200	0,701
D0300	0,542
D0600	0,239
D0900	0,115
D1200	0,067
D1500	0,050
D1800	0,040
D2100	0,033
TABLE Drops
Numero	4
PulseTime	29,4
ForceMax	62476
D_0300	0,608
D_0200	0,749
D0000	1,026
D0200	0,751
D0300	0,583
D0600	0,260
D0900	0,125
D1200	0,075
D1500	0,053
D1800	0,043
D2100	0,035
TABLE ReportPoints
Numero	16
Latitude	48,369740
Longitude	1,334318
DOP	1,8
Chainage	1601
Tair	26,4
Tsurf	31,2
Tman	0,0
Commentaire	
Date	22/07/2019 10:28
TABLE Drops
Numero	2
PulseTime	30,0
ForceMax	52885
D_0300	0,557
D_0200	0,702
D0000	0,954
D0200	0,686
D0300	0,532
D0600	0,221
D0900	0,104
D1200	0,062
D1500	0,046
D1800	0,036
D2100	0,027
TABLE Drops
Numero	3
PulseTime	29,8
ForceMax	57636
D_0300	0,602
D_0200	0,756
D0000	0,999
D0200	0,739
D0300	0,577
D0600	0,245
D0900	0,113
D1200	0,069
D1500	0,052
D1800	0,040
D2100	0,032
TABLE Drops
Numero	4
PulseTime	29,5
ForceMax	62780
D_0300	0,653
D_0200	0,817
D0000	1,103
D0200	0,797
D0300	0,623
D0600	0,268
D0900	0,126
D1200	0,076
D1500	0,056
D1800	0,044
D2100	0,033
TABLE ReportPoints
Numero	17
Latitude	48,369703
Longitude	1,334282
DOP	1,8
Chainage	1607
Tair	26,6
Tsurf	31,8
Tman	0,0
Commentaire	
Date	22/07/2019 10:29
TABLE Drops
Numero	2
PulseTime	30,1
ForceMax	52737
D_0300	0,584
D_0200	0,726
D0000	0,998
D0200	0,713
D0300	0,546
D0600	0,242
D0900	0,116
D1200	0,070
D1500	0,050
D1800	0,040
D2100	0,031
TABLE Drops
Numero	3
PulseTime	29,9
ForceMax	57188
D_0300	0,628
D_0200	0,777
D0000	1,065
D0200	0,763
D0300	0,586
D0600	0,261
D0900	0,126
D1200	0,077
D1500	0,054
D1800	0,044
D2100	0,035
TABLE Drops
Numero	4
PulseTime	29,7
ForceMax	62093
D_0300	0,677
D_0200	0,833
D0000	1,127
D0200	0,821
D0300	0,631
D0600	0,284
D0900	0,138
D1200	0,083
D1500	0,060
D1800	0,047
D2100	0,038
TABLE ReportPoints
Numero	18
Latitude	48,369661
Longitude	1,334255
DOP	1,8
Chainage	1612
Tair	26,4
Tsurf	26,0
Tman	0,0
Commentaire	
Date	22/07/2019 10:32
TABLE Drops
Numero	2
PulseTime	30,2
ForceMax	52366
D_0300	0,575
D_0200	0,717
D0000	0,958
D0200	0,678
D0300	0,524
D0600	0,248
D0900	0,121
D1200	0,071
D1500	0,051
D1800	0,039
D2100	0,034
TABLE Drops
Numero	3
PulseTime	29,9
ForceMax	57331
D_0300	0,626
D_0200	0,776
D0000	1,018
D0200	0,734
D0300	0,569
D0600	0,276
D0900	0,133
D1200	0,078
D1500	0,052
D1800	0,043
D2100	0,034
TABLE Drops
Numero	4
PulseTime	29,7
ForceMax	62447
D_0300	0,679
D_0200	0,835
D0000	1,105
D0200	0,789
D0300	0,615
D0600	0,294
D0900	0,147
D1200	0,083
D1500	0,060
D1800	0,045
D2100	0,034
TABLE ReportPoints
Numero	19
Latitude	48,369621
Longitude	1,334219
DOP	2,1
Chainage	1617
Tair	26,2
Tsurf	25,0
Tman	0,0
Commentaire	
Date	22/07/2019 10:33
TABLE Drops
Numero	2
PulseTime	30,0
ForceMax	52900
D_0300	0,536
D_0200	0,642
D0000	0,819
D0200	0,626
D0300	0,495
D0600	0,237
D0900	0,125
D1200	0,074
D1500	0,051
D1800	0,039
D2100	0,028
TABLE Drops
Numero	3
PulseTime	29,7
ForceMax	57605
D_0300	0,575
D_0200	0,688
D0000	0,898
D0200	0,673
D0300	0,535
D0600	0,258
D0900	0,139
D1200	0,081
D1500	0,057
D1800	0,043
D2100	0,032
TABLE Drops
Numero	4
PulseTime	29,4
ForceMax	62900
D_0300	0,628
D_0200	0,743
D0000	0,945
D0200	0,730
D0300	0,582
D0600	0,286
D0900	0,152
D1200	0,088
D1500	0,062
D1800	0,047
D2100	0,036
TABLE ReportPoints
Numero	20
Latitude	48,369583
Longitude	1,334196
DOP	1,8
Chainage	1623
Tair	26,0
Tsurf	24,0
Tman	0,0
Commentaire	
Date	22/07/2019 10:34
TABLE Drops
Numero	2
PulseTime	30,0
ForceMax	52551
D_0300	0,538
D_0200	0,664
D0000	0,853
D0200	0,638
D0300	0,493
D0600	0,240
D0900	0,123
D1200	0,077
D1500	0,054
D1800	0,041
D2100	0,032
TABLE Drops
Numero	3
PulseTime	29,8
ForceMax	57427
D_0300	0,583
D_0200	0,717
D0000	0,919
D0200	0,687
D0300	0,537
D0600	0,263
D0900	0,138
D1200	0,085
D1500	0,060
D1800	0,046
D2100	0,036
TABLE Drops
Numero	4
PulseTime	29,5
ForceMax	62153
D_0300	0,626
D_0200	0,765
D0000	0,984
D0200	0,735
D0300	0,575
D0600	0,282
D0900	0,152
D1200	0,090
D1500	0,063
D1800	0,048
D2100	0,036
