TABLE Database
Logiciel	Heavydyn
VersionBDD	1
TABLE Dossiers
Nom	coisé bailleau
Client	
ContactClient	
Dossier	
Localite	
Date	22/07/2019
Ouvrage	
Commentaire	
Smoothing	True
UnitDeplNom	um
UnitDeplRatio	1,0E-006
UnitForceNom	kN
UnitForceRatio	1,0E+003
TABLE PVs
Nom	zonage
Date	22/07/2019
Operateur	COLAS IDFN
Voie	
Sens	
PartieOuvrage	
Climat	
Commentaire	
TABLE Sequences
Nom	FR-60KN
TABLE Etapes
Numero	2
DansRapport	True
TypeDrop	Force
ValeurDrop	60,0
TABLE Etapes
Numero	3
DansRapport	True
TypeDrop	Force
ValeurDrop	60,0
TABLE Plateformes
Type	
Couche	
Materiau	
GTR	
Etat	
ClassDeflection	
SeuilDeflection	0,00
TABLE Machines
Serial	HVY-102B
Attribution	CG Martinique           
MAC	60-96-08-63-3E-F8-17-4A
LicStart	22/09/2018
LicEnd	22/09/2050
CertStart	22/09/2018
CertEnd	22/09/2020
TABLE ParamsAcqu
NbSamples	1500
FreqAcqu	30000,00
PreTrig	0,01
TABLE Calibrations
Infos	Default values calibration
Date	20/06/2018
DPlaque	0,300
PositionCapteurs	-300,000	-200,000	0,000	200,000	300,000	600,000	900,000	1200,000	1500,000	1800,000	2100,000
IndexD0	2
TABLE Voies
VoieAcqu	0
ChannelAdc	15
Distance	0
Nom	DZWY
Type	LoadCell
Gain	4,103E-008
V0	0,000E+000
TABLE Voies
VoieAcqu	1
ChannelAdc	1
Distance	-300
Nom	FG-133
Type	Geophone
Gain	2,985E+001
V0	0,000E+000
TABLE Voies
VoieAcqu	2
ChannelAdc	2
Distance	-200
Nom	FG-135
Type	Geophone
Gain	3,053E+001
V0	0,000E+000
TABLE Voies
VoieAcqu	3
ChannelAdc	0
Distance	0
Nom	FG-150
Type	Geophone
Gain	3,087E+001
V0	0,000E+000
TABLE Voies
VoieAcqu	4
ChannelAdc	3
Distance	200
Nom	FG-136
Type	Geophone
Gain	3,138E+001
V0	0,000E+000
TABLE Voies
VoieAcqu	5
ChannelAdc	4
Distance	300
Nom	FG-137
Type	Geophone
Gain	3,136E+001
V0	0,000E+000
TABLE Voies
VoieAcqu	6
ChannelAdc	5
Distance	600
Nom	FG-139
Type	Geophone
Gain	3,063E+001
V0	0,000E+000
TABLE Voies
VoieAcqu	7
ChannelAdc	8
Distance	900
Nom	FG-140
Type	Geophone
Gain	3,045E+001
V0	0,000E+000
TABLE Voies
VoieAcqu	8
ChannelAdc	9
Distance	1200
Nom	FG-141
Type	Geophone
Gain	3,102E+001
V0	0,000E+000
TABLE Voies
VoieAcqu	9
ChannelAdc	10
Distance	1500
Nom	FG-142
Type	Geophone
Gain	3,080E+001
V0	0,000E+000
TABLE Voies
VoieAcqu	10
ChannelAdc	13
Distance	1800
Nom	FG-143
Type	Geophone
Gain	3,083E+001
V0	0,000E+000
TABLE Voies
VoieAcqu	11
ChannelAdc	14
Distance	2100
Nom	FG-144
Type	Geophone
Gain	3,092E+001
V0	0,000E+000
TABLE Sensors
Nom	AirTemp
Type	AirTemp
Gain	3,850E-001
V0	1,000E+002
TABLE Sensors
Nom	SurfTemp
Type	SurfTemp
Gain	1,000E+000
V0	0,000E+000
TABLE Sensors
Nom	DMI
Type	Dmi
Gain	1,800E+002
V0	0,000E+000
TABLE ResultatsPV
Points_Nombre	25
PointsOK_Nombre	25
PointsOK_Max	0,0
PointsOK_Min	0,0
PointsOK_Moyenne	0,0
PointsOK_Std	0,0
PointsPass_Nombre	0
PointsFailNombre	25
TABLE ArrayResult
Latitude	48,370782	48,370698	48,370640	48,370596	48,370548	48,370489	48,370452	48,370365	48,370326	48,370290	48,370225	48,370159	48,370102	48,370058	48,370009	48,369974	48,369885	48,369852	48,369803	48,369756	48,369719	48,369682	48,369631	48,369599	48,369556
Longitude	1,335160	1,335124	1,335057	1,335012	1,334973	1,334929	1,334885	1,334821	1,334785	1,334746	1,334697	1,334640	1,334598	1,334556	1,334522	1,334496	1,334430	1,334396	1,334359	1,334330	1,334304	1,334277	1,334227	1,334199	1,334171
Chainage	12	21	29	35	42	49	54	64	70	75	84	92	99	106	111	116	128	132	138	143	148	153	159	164	169
Tair	24,0	24,2	24,4	24,4	24,2	24,6	24,4	24,4	24,2	24,2	24,0	24,2	24,2	24,2	24,2	24,2	24,4	24,4	24,4	24,8	25,2	25,2	25,2	25,2	25,2
Tsurf	28,5	27,8	27,5	27,5	28,9	28,3	27,9	23,2	22,7	23,8	28,9	29,9	30,2	30,3	30,2	28,9	26,9	28,8	29,4	30,1	30,1	29,2	24,0	23,6	23,3
Tman	0,0	0,0	0,0	0,0	0,0	0,0	0,0	0,0	0,0	0,0	0,0	0,0	0,0	0,0	0,0	0,0	0,0	0,0	0,0	0,0	0,0	0,0	0,0	0,0	0,0
Forcemax	60,3	58,2	58,1	58,2	57,3	58,5	58,8	58,8	57,2	57,9	57,2	56,9	56,7	58,0	57,9	57,3	57,8	57,5	57,6	58,1	58,0	57,6	57,9	58,2	57,9
D_0300	259	276	376	408	541	386	407	518	621	529	631	677	661	533	535	646	612	585	580	602	646	630	614	586	571
D_0200	310	324	485	485	637	463	469	621	749	668	825	842	845	677	657	808	787	735	704	740	795	761	738	699	699
D0000	438	443	706	653	804	603	584	799	968	906	1169	1135	1150	912	923	1122	1085	1004	988	976	1079	1008	957	914	947
D0200	320	320	487	482	618	458	464	600	720	650	779	835	834	658	654	806	762	692	702	743	771	748	704	662	688
D0300	243	259	367	389	461	369	386	489	556	511	578	626	611	485	508	596	583	530	538	566	599	578	565	531	540
D0600	134	151	189	200	232	211	210	258	260	248	260	276	252	224	238	242	244	236	243	251	264	259	269	262	256
D0900	86	99	114	116	128	124	125	141	134	127	124	131	126	119	122	117	112	117	116	121	126	130	139	138	137
D1200	57	65	71	70	76	77	76	80	74	72	70	72	74	70	74	71	67	69	69	71	74	75	81	80	84
D1500	40	46	49	48	49	49	50	51	49	47	45	47	51	48	51	52	48	50	51	49	53	54	55	55	60
D1800	31	34	37	35	36	35	37	36	36	33	32	35	37	36	39	40	38	38	39	40	42	42	39	43	45
D2100	23	25	30	28	27	27	26	27	28	28	24	26	29	27	29	32	30	31	32	31	33	31	31	33	35
TABLE ReportPoints
Numero	1
Latitude	48,370782
Longitude	1,335160
DOP	1,8
Chainage	12
Tair	24,0
Tsurf	28,5
Tman	0,0
Commentaire	
Date	22/07/2019 09:42
TABLE Drops
Numero	2
PulseTime	28,2
ForceMax	60,2
D_0300	258
D_0200	308
D0000	439
D0200	321
D0300	252
D0600	133
D0900	86
D1200	57
D1500	40
D1800	30
D2100	23
TABLE Drops
Numero	3
PulseTime	28,3
ForceMax	60,3
D_0300	259
D_0200	310
D0000	438
D0200	320
D0300	243
D0600	134
D0900	86
D1200	57
D1500	40
D1800	31
D2100	23
TABLE ReportPoints
Numero	2
Latitude	48,370698
Longitude	1,335124
DOP	1,5
Chainage	21
Tair	24,2
Tsurf	27,8
Tman	0,0
Commentaire	
Date	22/07/2019 09:43
TABLE Drops
Numero	2
PulseTime	28,7
ForceMax	58,2
D_0300	276
D_0200	324
D0000	447
D0200	322
D0300	260
D0600	150
D0900	100
D1200	65
D1500	45
D1800	34
D2100	25
TABLE Drops
Numero	3
PulseTime	28,7
ForceMax	58,2
D_0300	276
D_0200	324
D0000	443
D0200	320
D0300	259
D0600	151
D0900	99
D1200	65
D1500	46
D1800	34
D2100	25
TABLE ReportPoints
Numero	3
Latitude	48,370640
Longitude	1,335057
DOP	1,5
Chainage	29
Tair	24,4
Tsurf	27,5
Tman	0,0
Commentaire	
Date	22/07/2019 09:44
TABLE Drops
Numero	2
PulseTime	29,0
ForceMax	57,7
D_0300	373
D_0200	478
D0000	698
D0200	483
D0300	364
D0600	189
D0900	113
D1200	70
D1500	49
D1800	37
D2100	30
TABLE Drops
Numero	3
PulseTime	29,0
ForceMax	58,1
D_0300	376
D_0200	485
D0000	706
D0200	487
D0300	367
D0600	189
D0900	114
D1200	71
D1500	49
D1800	37
D2100	30
TABLE ReportPoints
Numero	4
Latitude	48,370596
Longitude	1,335012
DOP	1,5
Chainage	35
Tair	24,4
Tsurf	27,5
Tman	0,0
Commentaire	
Date	22/07/2019 09:45
TABLE Drops
Numero	2
PulseTime	29,0
ForceMax	58,2
D_0300	409
D_0200	488
D0000	666
D0200	485
D0300	390
D0600	200
D0900	116
D1200	69
D1500	48
D1800	35
D2100	28
TABLE Drops
Numero	3
PulseTime	29,0
ForceMax	58,2
D_0300	408
D_0200	485
D0000	653
D0200	482
D0300	389
D0600	200
D0900	116
D1200	70
D1500	48
D1800	35
D2100	28
TABLE ReportPoints
Numero	5
Latitude	48,370548
Longitude	1,334973
DOP	1,5
Chainage	42
Tair	24,2
Tsurf	28,9
Tman	0,0
Commentaire	
Date	22/07/2019 09:46
TABLE Drops
Numero	2
PulseTime	29,1
ForceMax	57,2
D_0300	539
D_0200	639
D0000	808
D0200	626
D0300	463
D0600	229
D0900	128
D1200	76
D1500	48
D1800	36
D2100	27
TABLE Drops
Numero	3
PulseTime	29,1
ForceMax	57,3
D_0300	541
D_0200	637
D0000	804
D0200	618
D0300	461
D0600	232
D0900	128
D1200	76
D1500	49
D1800	36
D2100	27
TABLE ReportPoints
Numero	6
Latitude	48,370489
Longitude	1,334929
DOP	1,5
Chainage	49
Tair	24,6
Tsurf	28,3
Tman	0,0
Commentaire	
Date	22/07/2019 09:47
TABLE Drops
Numero	2
PulseTime	28,9
ForceMax	59,0
D_0300	388
D_0200	465
D0000	608
D0200	463
D0300	372
D0600	214
D0900	126
D1200	77
D1500	51
D1800	35
D2100	27
TABLE Drops
Numero	3
PulseTime	28,9
ForceMax	58,5
D_0300	386
D_0200	463
D0000	603
D0200	458
D0300	369
D0600	211
D0900	124
D1200	77
D1500	49
D1800	35
D2100	27
TABLE ReportPoints
Numero	7
Latitude	48,370452
Longitude	1,334885
DOP	1,5
Chainage	54
Tair	24,4
Tsurf	27,9
Tman	0,0
Commentaire	
Date	22/07/2019 09:47
TABLE Drops
Numero	2
PulseTime	28,9
ForceMax	58,9
D_0300	407
D_0200	469
D0000	583
D0200	466
D0300	386
D0600	209
D0900	126
D1200	75
D1500	50
D1800	37
D2100	25
TABLE Drops
Numero	3
PulseTime	28,9
ForceMax	58,8
D_0300	407
D_0200	469
D0000	584
D0200	464
D0300	386
D0600	210
D0900	125
D1200	76
D1500	50
D1800	37
D2100	26
TABLE ReportPoints
Numero	8
Latitude	48,370365
Longitude	1,334821
DOP	1,8
Chainage	64
Tair	24,4
Tsurf	23,2
Tman	0,0
Commentaire	
Date	22/07/2019 09:49
TABLE Drops
Numero	2
PulseTime	29,0
ForceMax	58,6
D_0300	514
D_0200	618
D0000	802
D0200	599
D0300	488
D0600	257
D0900	141
D1200	80
D1500	50
D1800	35
D2100	27
TABLE Drops
Numero	3
PulseTime	29,0
ForceMax	58,8
D_0300	518
D_0200	621
D0000	799
D0200	600
D0300	489
D0600	258
D0900	141
D1200	80
D1500	51
D1800	36
D2100	27
TABLE ReportPoints
Numero	9
Latitude	48,370326
Longitude	1,334785
DOP	1,5
Chainage	70
Tair	24,2
Tsurf	22,7
Tman	0,0
Commentaire	
Date	22/07/2019 09:49
TABLE Drops
Numero	2
PulseTime	29,5
ForceMax	57,5
D_0300	619
D_0200	749
D0000	972
D0200	718
D0300	555
D0600	262
D0900	135
D1200	75
D1500	49
D1800	35
D2100	28
TABLE Drops
Numero	3
PulseTime	29,5
ForceMax	57,2
D_0300	621
D_0200	749
D0000	968
D0200	720
D0300	556
D0600	260
D0900	134
D1200	74
D1500	49
D1800	36
D2100	28
TABLE ReportPoints
Numero	10
Latitude	48,370290
Longitude	1,334746
DOP	1,8
Chainage	75
Tair	24,2
Tsurf	23,8
Tman	0,0
Commentaire	
Date	22/07/2019 09:50
TABLE Drops
Numero	2
PulseTime	29,3
ForceMax	58,0
D_0300	528
D_0200	661
D0000	906
D0200	647
D0300	507
D0600	249
D0900	128
D1200	72
D1500	47
D1800	34
D2100	27
TABLE Drops
Numero	3
PulseTime	29,3
ForceMax	57,9
D_0300	529
D_0200	668
D0000	906
D0200	650
D0300	511
D0600	248
D0900	127
D1200	72
D1500	47
D1800	33
D2100	28
TABLE ReportPoints
Numero	11
Latitude	48,370225
Longitude	1,334697
DOP	1,8
Chainage	84
Tair	24,0
Tsurf	28,9
Tman	0,0
Commentaire	
Date	22/07/2019 09:51
TABLE Drops
Numero	2
PulseTime	29,7
ForceMax	57,3
D_0300	625
D_0200	819
D0000	1175
D0200	776
D0300	575
D0600	260
D0900	123
D1200	69
D1500	45
D1800	32
D2100	25
TABLE Drops
Numero	3
PulseTime	29,7
ForceMax	57,2
D_0300	631
D_0200	825
D0000	1169
D0200	779
D0300	578
D0600	260
D0900	124
D1200	70
D1500	45
D1800	32
D2100	24
TABLE ReportPoints
Numero	12
Latitude	48,370159
Longitude	1,334640
DOP	1,5
Chainage	92
Tair	24,2
Tsurf	29,9
Tman	0,0
Commentaire	
Date	22/07/2019 09:51
TABLE Drops
Numero	2
PulseTime	29,9
ForceMax	57,0
D_0300	669
D_0200	837
D0000	1158
D0200	845
D0300	625
D0600	275
D0900	132
D1200	72
D1500	47
D1800	34
D2100	25
TABLE Drops
Numero	3
PulseTime	29,9
ForceMax	56,9
D_0300	677
D_0200	842
D0000	1135
D0200	835
D0300	626
D0600	276
D0900	131
D1200	72
D1500	47
D1800	35
D2100	26
TABLE ReportPoints
Numero	13
Latitude	48,370102
Longitude	1,334598
DOP	1,5
Chainage	99
Tair	24,2
Tsurf	30,2
Tman	0,0
Commentaire	
Date	22/07/2019 09:52
TABLE Drops
Numero	2
PulseTime	30,0
ForceMax	56,4
D_0300	654
D_0200	839
D0000	1155
D0200	831
D0300	604
D0600	249
D0900	126
D1200	73
D1500	49
D1800	36
D2100	27
TABLE Drops
Numero	3
PulseTime	30,0
ForceMax	56,7
D_0300	661
D_0200	845
D0000	1150
D0200	834
D0300	611
D0600	252
D0900	126
D1200	74
D1500	51
D1800	37
D2100	29
TABLE ReportPoints
Numero	14
Latitude	48,370058
Longitude	1,334556
DOP	1,5
Chainage	106
Tair	24,2
Tsurf	30,3
Tman	0,0
Commentaire	
Date	22/07/2019 09:53
TABLE Drops
Numero	2
PulseTime	29,3
ForceMax	58,0
D_0300	534
D_0200	671
D0000	917
D0200	658
D0300	484
D0600	224
D0900	119
D1200	70
D1500	48
D1800	36
D2100	27
TABLE Drops
Numero	3
PulseTime	29,4
ForceMax	58,0
D_0300	533
D_0200	677
D0000	912
D0200	658
D0300	485
D0600	224
D0900	119
D1200	70
D1500	48
D1800	36
D2100	27
TABLE ReportPoints
Numero	15
Latitude	48,370009
Longitude	1,334522
DOP	1,5
Chainage	111
Tair	24,2
Tsurf	30,2
Tman	0,0
Commentaire	
Date	22/07/2019 09:53
TABLE Drops
Numero	2
PulseTime	29,4
ForceMax	57,9
D_0300	530
D_0200	657
D0000	927
D0200	656
D0300	507
D0600	238
D0900	122
D1200	73
D1500	51
D1800	39
D2100	29
TABLE Drops
Numero	3
PulseTime	29,4
ForceMax	57,9
D_0300	535
D_0200	657
D0000	923
D0200	654
D0300	508
D0600	238
D0900	122
D1200	74
D1500	51
D1800	39
D2100	29
TABLE ReportPoints
Numero	16
Latitude	48,369974
Longitude	1,334496
DOP	1,5
Chainage	116
Tair	24,2
Tsurf	28,9
Tman	0,0
Commentaire	
Date	22/07/2019 09:54
TABLE Drops
Numero	2
PulseTime	29,6
ForceMax	57,6
D_0300	647
D_0200	812
D0000	1123
D0200	814
D0300	598
D0600	243
D0900	118
D1200	71
D1500	49
D1800	38
D2100	32
TABLE Drops
Numero	3
PulseTime	29,6
ForceMax	57,3
D_0300	646
D_0200	808
D0000	1122
D0200	806
D0300	596
D0600	242
D0900	117
D1200	71
D1500	52
D1800	40
D2100	32
TABLE ReportPoints
Numero	17
Latitude	48,369885
Longitude	1,334430
DOP	1,5
Chainage	128
Tair	24,4
Tsurf	26,9
Tman	0,0
Commentaire	
Date	22/07/2019 09:55
TABLE Drops
Numero	2
PulseTime	29,5
ForceMax	58,1
D_0300	616
D_0200	795
D0000	1101
D0200	769
D0300	585
D0600	244
D0900	112
D1200	67
D1500	47
D1800	37
D2100	29
TABLE Drops
Numero	3
PulseTime	29,5
ForceMax	57,8
D_0300	612
D_0200	787
D0000	1085
D0200	762
D0300	583
D0600	244
D0900	112
D1200	67
D1500	48
D1800	38
D2100	30
TABLE ReportPoints
Numero	18
Latitude	48,369852
Longitude	1,334396
DOP	1,5
Chainage	132
Tair	24,4
Tsurf	28,8
Tman	0,0
Commentaire	
Date	22/07/2019 09:56
TABLE Drops
Numero	2
PulseTime	29,6
ForceMax	57,5
D_0300	586
D_0200	741
D0000	1023
D0200	699
D0300	533
D0600	234
D0900	117
D1200	70
D1500	50
D1800	39
D2100	31
TABLE Drops
Numero	3
PulseTime	29,7
ForceMax	57,5
D_0300	585
D_0200	735
D0000	1004
D0200	692
D0300	530
D0600	236
D0900	117
D1200	69
D1500	50
D1800	38
D2100	31
TABLE ReportPoints
Numero	19
Latitude	48,369803
Longitude	1,334359
DOP	1,5
Chainage	138
Tair	24,4
Tsurf	29,4
Tman	0,0
Commentaire	
Date	22/07/2019 09:57
TABLE Drops
Numero	2
PulseTime	29,4
ForceMax	57,5
D_0300	584
D_0200	711
D0000	991
D0200	713
D0300	544
D0600	243
D0900	115
D1200	69
D1500	51
D1800	40
D2100	32
TABLE Drops
Numero	3
PulseTime	29,4
ForceMax	57,6
D_0300	580
D_0200	704
D0000	988
D0200	702
D0300	538
D0600	243
D0900	116
D1200	69
D1500	51
D1800	39
D2100	32
TABLE ReportPoints
Numero	20
Latitude	48,369756
Longitude	1,334330
DOP	1,5
Chainage	143
Tair	24,8
Tsurf	30,1
Tman	0,0
Commentaire	
Date	22/07/2019 09:57
TABLE Drops
Numero	2
PulseTime	29,4
ForceMax	58,1
D_0300	606
D_0200	747
D0000	996
D0200	756
D0300	572
D0600	251
D0900	122
D1200	70
D1500	50
D1800	40
D2100	31
TABLE Drops
Numero	3
PulseTime	29,4
ForceMax	58,1
D_0300	602
D_0200	740
D0000	976
D0200	743
D0300	566
D0600	251
D0900	121
D1200	71
D1500	49
D1800	40
D2100	31
TABLE ReportPoints
Numero	21
Latitude	48,369719
Longitude	1,334304
DOP	1,5
Chainage	148
Tair	25,2
Tsurf	30,1
Tman	0,0
Commentaire	
Date	22/07/2019 09:58
TABLE Drops
Numero	2
PulseTime	29,5
ForceMax	58,1
D_0300	650
D_0200	802
D0000	1071
D0200	778
D0300	602
D0600	264
D0900	126
D1200	74
D1500	54
D1800	43
D2100	33
TABLE Drops
Numero	3
PulseTime	29,6
ForceMax	58,0
D_0300	646
D_0200	795
D0000	1079
D0200	771
D0300	599
D0600	264
D0900	126
D1200	74
D1500	53
D1800	42
D2100	33
TABLE ReportPoints
Numero	22
Latitude	48,369682
Longitude	1,334277
DOP	1,5
Chainage	153
Tair	25,2
Tsurf	29,2
Tman	0,0
Commentaire	
Date	22/07/2019 09:59
TABLE Drops
Numero	2
PulseTime	29,6
ForceMax	57,6
D_0300	632
D_0200	770
D0000	1033
D0200	757
D0300	584
D0600	262
D0900	128
D1200	76
D1500	56
D1800	43
D2100	34
TABLE Drops
Numero	3
PulseTime	29,6
ForceMax	57,6
D_0300	630
D_0200	761
D0000	1008
D0200	748
D0300	578
D0600	259
D0900	130
D1200	75
D1500	54
D1800	42
D2100	31
TABLE ReportPoints
Numero	23
Latitude	48,369631
Longitude	1,334227
DOP	1,5
Chainage	159
Tair	25,2
Tsurf	24,0
Tman	0,0
Commentaire	
Date	22/07/2019 10:00
TABLE Drops
Numero	2
PulseTime	29,5
ForceMax	57,9
D_0300	616
D_0200	744
D0000	973
D0200	713
D0300	571
D0600	273
D0900	136
D1200	82
D1500	57
D1800	34
D2100	34
TABLE Drops
Numero	3
PulseTime	29,5
ForceMax	57,9
D_0300	614
D_0200	738
D0000	957
D0200	704
D0300	565
D0600	269
D0900	139
D1200	81
D1500	55
D1800	39
D2100	31
TABLE ReportPoints
Numero	24
Latitude	48,369599
Longitude	1,334199
DOP	1,5
Chainage	164
Tair	25,2
Tsurf	23,6
Tman	0,0
Commentaire	
Date	22/07/2019 10:00
TABLE Drops
Numero	2
PulseTime	29,3
ForceMax	58,1
D_0300	589
D_0200	707
D0000	919
D0200	673
D0300	538
D0600	266
D0900	137
D1200	82
D1500	58
D1800	44
D2100	35
TABLE Drops
Numero	3
PulseTime	29,3
ForceMax	58,2
D_0300	586
D_0200	699
D0000	914
D0200	662
D0300	531
D0600	262
D0900	138
D1200	80
D1500	55
D1800	43
D2100	33
TABLE ReportPoints
Numero	25
Latitude	48,369556
Longitude	1,334171
DOP	1,5
Chainage	169
Tair	25,2
Tsurf	23,3
Tman	0,0
Commentaire	
Date	22/07/2019 10:01
TABLE Drops
Numero	2
PulseTime	29,5
ForceMax	57,9
D_0300	572
D_0200	701
D0000	954
D0200	693
D0300	541
D0600	258
D0900	136
D1200	84
D1500	59
D1800	44
D2100	35
TABLE Drops
Numero	3
PulseTime	29,5
ForceMax	57,9
D_0300	571
D_0200	699
D0000	947
D0200	688
D0300	540
D0600	256
D0900	137
D1200	84
D1500	60
D1800	45
D2100	35
