TABLE Database
Logiciel	Heavydyn
VersionBDD	1
TABLE Dossiers
Nom	M20 Project BROCK
Client	Balfour Beatty
ContactClient	
Dossier	51044103M75
Localite	M20 Project BROCK
Date	20/12/2018
Ouvrage	Hard Shoulder CH63900 to 62700
Commentaire	
Smoothing	True
UnitDeplNom	µm
UnitDeplRatio	1,0E-006
UnitForceNom	kN
UnitForceRatio	1,0E+003
TABLE PVs
Nom	Hard Shoulder 63900 to 62700
Date	20/12/2018
Operateur	A Collins Socotec UK
Voie	Hard Shoulder
Sens	North
PartieOuvrage	
Climat	Overcast Night
Commentaire	
TABLE Sequences
Nom	UK-50KN
TABLE Etapes
Numero	2
DansRapport	True
TypeDrop	Force
ValeurDrop	50,0
TABLE Etapes
Numero	3
DansRapport	True
TypeDrop	Force
ValeurDrop	50,0
TABLE Etapes
Numero	4
DansRapport	True
TypeDrop	Force
ValeurDrop	50,0
TABLE Plateformes
Type	
Couche	
Materiau	
GTR	
Etat	
ClassDeflection	
SeuilDeflection	0,00
TABLE Machines
Serial	HVY-101A
Attribution	Socotec UK              
MAC	CE-9B-FE-6B-56-DD-49-C9
LicStart	01/01/2018
LicEnd	01/01/2050
CertStart	15/05/2018
CertEnd	15/05/2020
TABLE ParamsAcqu
NbSamples	2000
FreqAcqu	30000,00
PreTrig	0,01
TABLE Calibrations
Infos	Default values calibration
Date	20/06/2018
DPlaque	0,300
PositionCapteurs	-200,000	0,000	200,000	300,000	600,000	900,000	1200,000	1350,000	1500,000	1800,000	2100,000	2250,000
IndexD0	1
TABLE Voies
VoieAcqu	0
ChannelAdc	15
Distance	0
Nom	DZWY
Type	LoadCell
Gain	4,103E-008
V0	0,000E+000
TABLE Voies
VoieAcqu	1
ChannelAdc	0
Distance	-200
Nom	FG-109
Type	Geophone
Gain	2,078E+001
V0	0,000E+000
TABLE Voies
VoieAcqu	2
ChannelAdc	1
Distance	0
Nom	FG-000
Type	Geophone
Gain	2,101E+001
V0	0,000E+000
TABLE Voies
VoieAcqu	3
ChannelAdc	2
Distance	200
Nom	FG-100
Type	Geophone
Gain	2,070E+001
V0	0,000E+000
TABLE Voies
VoieAcqu	4
ChannelAdc	3
Distance	300
Nom	FG-101
Type	Geophone
Gain	2,114E+001
V0	0,000E+000
TABLE Voies
VoieAcqu	5
ChannelAdc	4
Distance	600
Nom	FG-102
Type	Geophone
Gain	2,083E+001
V0	0,000E+000
TABLE Voies
VoieAcqu	6
ChannelAdc	5
Distance	900
Nom	FG-103
Type	Geophone
Gain	2,022E+001
V0	0,000E+000
TABLE Voies
VoieAcqu	7
ChannelAdc	7
Distance	1200
Nom	FG-104
Type	Geophone
Gain	2,067E+001
V0	0,000E+000
TABLE Voies
VoieAcqu	8
ChannelAdc	6
Distance	1350
Nom	FG-105
Type	Geophone
Gain	2,045E+001
V0	0,000E+000
TABLE Voies
VoieAcqu	9
ChannelAdc	8
Distance	1500
Nom	FG-106
Type	Geophone
Gain	2,075E+001
V0	0,000E+000
TABLE Voies
VoieAcqu	10
ChannelAdc	9
Distance	1800
Nom	FG-107
Type	Geophone
Gain	2,089E+001
V0	0,000E+000
TABLE Voies
VoieAcqu	11
ChannelAdc	10
Distance	2100
Nom	FG-108
Type	Geophone
Gain	2,130E+001
V0	0,000E+000
TABLE Voies
VoieAcqu	12
ChannelAdc	11
Distance	2250
Nom	FG-110
Type	Geophone
Gain	2,080E+001
V0	0,000E+000
TABLE Sensors
Nom	AirTemp
Type	AirTemp
Gain	3,700E-001
V0	9,900E+001
TABLE Sensors
Nom	SurfTemp
Type	SurfTemp
Gain	1,000E+000
V0	5,000E+000
TABLE Sensors
Nom	DMI
Type	Dmi
Gain	1,802E+002
V0	0,000E+000
TABLE ResultatsPV
Points_Nombre	11
PointsOK_Nombre	11
PointsOK_Max	0,0
PointsOK_Min	0,0
PointsOK_Moyenne	0,0
PointsOK_Std	0,0
PointsPass_Nombre	0
PointsFailNombre	11
TABLE ArrayResult
Latitude	51,269956	51,270071	51,270203	51,270314	51,270442	51,270551	51,270672	51,270790	51,270920	51,271026	51,271157
Longitude	0,603934	0,603727	0,603515	0,603297	0,603075	0,602877	0,602663	0,602461	0,602226	0,602026	0,601819
Chainage	2528	20	40	60	81	101	120	140	161	180	201
Tair	9,9	9,9	9,8	9,8	9,8	9,8	9,8	9,8	9,8	9,8	9,9
Tsurf	7,3	7,1	7,4	7,5	7,3	7,1	7,1	7,0	7,0	7,3	7,3
Tman	0,0	0,0	0,0	0,0	0,0	0,0	0,0	0,0	0,0	0,0	0,0
Forcemax	49,1	49,1	48,5	49,2	49,4	49,3	49,0	48,9	48,9	49,4	49,8
D_0200	35	66	63	52	61	31	34	42	30	29	29
D0000	49	66	72	20	80	39	47	52	62	36	58
D0200	33	66	65	51	62	31	39	47	11	35	23
D0300	26	63	61	46	58	29	32	39	28	27	27
D0600	19	58	56	36	51	25	28	35	25	25	25
D0900	17	54	51	26	45	24	26	33	23	23	23
D1200	15	48	44	15	39	21	23	30	20	20	21
D1350	14	46	42	11	37	20	22	28	20	20	21
D1500	15	45	39	8	34	21	20	27	21	21	22
D1800	12	38	33	5	30	18	19	25	17	17	18
D2100	11	33	28	5	26	17	17	23	15	15	16
D2250	10	31	26	5	25	16	18	22	15	15	16
TABLE ReportPoints
Numero	1
Latitude	51,269956
Longitude	0,603934
DOP	1,8
Chainage	2528
Tair	9,9
Tsurf	7,3
Tman	0,0
Commentaire	
Date	20/12/2018 21:36
TABLE Drops
Numero	2
PulseTime	25,2
ForceMax	48,8
D_0200	35
D0000	49
D0200	33
D0300	26
D0600	19
D0900	17
D1200	15
D1350	14
D1500	15
D1800	12
D2100	11
D2250	10
TABLE Drops
Numero	3
PulseTime	25,2
ForceMax	48,8
D_0200	35
D0000	46
D0200	33
D0300	26
D0600	19
D0900	17
D1200	15
D1350	14
D1500	15
D1800	12
D2100	11
D2250	10
TABLE Drops
Numero	4
PulseTime	25,2
ForceMax	49,1
D_0200	35
D0000	49
D0200	33
D0300	26
D0600	19
D0900	17
D1200	15
D1350	14
D1500	15
D1800	12
D2100	11
D2250	10
TABLE ReportPoints
Numero	2
Latitude	51,270071
Longitude	0,603727
DOP	1,8
Chainage	20
Tair	9,9
Tsurf	7,1
Tman	0,0
Commentaire	
Date	20/12/2018 21:37
TABLE Drops
Numero	2
PulseTime	25,5
ForceMax	48,8
D_0200	66
D0000	69
D0200	67
D0300	63
D0600	58
D0900	54
D1200	48
D1350	46
D1500	46
D1800	38
D2100	33
D2250	31
TABLE Drops
Numero	3
PulseTime	25,5
ForceMax	49,0
D_0200	67
D0000	66
D0200	67
D0300	64
D0600	59
D0900	55
D1200	48
D1350	46
D1500	46
D1800	39
D2100	34
D2250	31
TABLE Drops
Numero	4
PulseTime	25,5
ForceMax	49,1
D_0200	66
D0000	66
D0200	66
D0300	63
D0600	58
D0900	54
D1200	48
D1350	46
D1500	45
D1800	38
D2100	33
D2250	31
TABLE ReportPoints
Numero	3
Latitude	51,270203
Longitude	0,603515
DOP	1,8
Chainage	40
Tair	9,8
Tsurf	7,4
Tman	0,0
Commentaire	
Date	20/12/2018 21:39
TABLE Drops
Numero	2
PulseTime	25,9
ForceMax	48,4
D_0200	62
D0000	81
D0200	63
D0300	61
D0600	55
D0900	51
D1200	44
D1350	42
D1500	38
D1800	33
D2100	28
D2250	26
TABLE Drops
Numero	3
PulseTime	25,9
ForceMax	48,5
D_0200	63
D0000	70
D0200	64
D0300	61
D0600	56
D0900	51
D1200	44
D1350	42
D1500	39
D1800	33
D2100	28
D2250	26
TABLE Drops
Numero	4
PulseTime	25,9
ForceMax	48,5
D_0200	63
D0000	72
D0200	65
D0300	61
D0600	56
D0900	51
D1200	44
D1350	42
D1500	39
D1800	33
D2100	28
D2250	26
TABLE ReportPoints
Numero	4
Latitude	51,270314
Longitude	0,603297
DOP	1,8
Chainage	60
Tair	9,8
Tsurf	7,5
Tman	0,0
Commentaire	
Date	20/12/2018 21:39
TABLE Drops
Numero	2
PulseTime	25,7
ForceMax	49,0
D_0200	52
D0000	53
D0200	50
D0300	46
D0600	36
D0900	26
D1200	15
D1350	11
D1500	7
D1800	5
D2100	4
D2250	4
TABLE Drops
Numero	3
PulseTime	25,7
ForceMax	49,1
D_0200	52
D0000	52
D0200	50
D0300	46
D0600	36
D0900	26
D1200	15
D1350	11
D1500	9
D1800	5
D2100	4
D2250	4
TABLE Drops
Numero	4
PulseTime	25,7
ForceMax	49,2
D_0200	52
D0000	20
D0200	51
D0300	46
D0600	36
D0900	26
D1200	15
D1350	11
D1500	8
D1800	5
D2100	5
D2250	5
TABLE ReportPoints
Numero	5
Latitude	51,270442
Longitude	0,603075
DOP	1,8
Chainage	81
Tair	9,8
Tsurf	7,3
Tman	0,0
Commentaire	
Date	20/12/2018 21:41
TABLE Drops
Numero	2
PulseTime	25,6
ForceMax	49,2
D_0200	61
D0000	69
D0200	62
D0300	58
D0600	51
D0900	46
D1200	39
D1350	37
D1500	34
D1800	30
D2100	25
D2250	25
TABLE Drops
Numero	3
PulseTime	25,6
ForceMax	49,3
D_0200	61
D0000	72
D0200	61
D0300	58
D0600	50
D0900	45
D1200	39
D1350	37
D1500	34
D1800	30
D2100	26
D2250	25
TABLE Drops
Numero	4
PulseTime	25,6
ForceMax	49,4
D_0200	61
D0000	80
D0200	62
D0300	58
D0600	51
D0900	45
D1200	39
D1350	37
D1500	34
D1800	30
D2100	26
D2250	25
TABLE ReportPoints
Numero	6
Latitude	51,270551
Longitude	0,602877
DOP	1,8
Chainage	101
Tair	9,8
Tsurf	7,1
Tman	0,0
Commentaire	
Date	20/12/2018 21:43
TABLE Drops
Numero	2
PulseTime	25,7
ForceMax	49,2
D_0200	31
D0000	36
D0200	31
D0300	29
D0600	26
D0900	24
D1200	21
D1350	21
D1500	21
D1800	18
D2100	17
D2250	16
TABLE Drops
Numero	3
PulseTime	25,7
ForceMax	49,2
D_0200	31
D0000	42
D0200	31
D0300	29
D0600	26
D0900	24
D1200	21
D1350	20
D1500	21
D1800	18
D2100	17
D2250	15
TABLE Drops
Numero	4
PulseTime	25,7
ForceMax	49,3
D_0200	31
D0000	39
D0200	31
D0300	29
D0600	25
D0900	24
D1200	21
D1350	20
D1500	21
D1800	18
D2100	17
D2250	16
TABLE ReportPoints
Numero	7
Latitude	51,270672
Longitude	0,602663
DOP	1,8
Chainage	120
Tair	9,8
Tsurf	7,1
Tman	0,0
Commentaire	
Date	20/12/2018 21:44
TABLE Drops
Numero	2
PulseTime	25,9
ForceMax	48,8
D_0200	33
D0000	47
D0200	38
D0300	31
D0600	28
D0900	26
D1200	23
D1350	21
D1500	20
D1800	19
D2100	17
D2250	18
TABLE Drops
Numero	3
PulseTime	25,9
ForceMax	48,7
D_0200	34
D0000	45
D0200	37
D0300	31
D0600	28
D0900	26
D1200	22
D1350	22
D1500	20
D1800	19
D2100	17
D2250	17
TABLE Drops
Numero	4
PulseTime	25,9
ForceMax	49,0
D_0200	34
D0000	47
D0200	39
D0300	32
D0600	28
D0900	26
D1200	23
D1350	22
D1500	20
D1800	19
D2100	17
D2250	18
TABLE ReportPoints
Numero	8
Latitude	51,270790
Longitude	0,602461
DOP	1,8
Chainage	140
Tair	9,8
Tsurf	7,0
Tman	0,0
Commentaire	
Date	20/12/2018 21:46
TABLE Drops
Numero	2
PulseTime	25,9
ForceMax	48,9
D_0200	42
D0000	714
D0200	49
D0300	40
D0600	36
D0900	33
D1200	30
D1350	29
D1500	27
D1800	26
D2100	23
D2250	22
TABLE Drops
Numero	3
PulseTime	25,9
ForceMax	49,1
D_0200	42
D0000	49
D0200	47
D0300	39
D0600	35
D0900	33
D1200	30
D1350	28
D1500	27
D1800	25
D2100	22
D2250	21
TABLE Drops
Numero	4
PulseTime	25,9
ForceMax	48,9
D_0200	42
D0000	52
D0200	47
D0300	39
D0600	35
D0900	33
D1200	30
D1350	28
D1500	27
D1800	25
D2100	23
D2250	22
TABLE ReportPoints
Numero	9
Latitude	51,270920
Longitude	0,602226
DOP	1,8
Chainage	161
Tair	9,8
Tsurf	7,0
Tman	0,0
Commentaire	
Date	20/12/2018 21:48
TABLE Drops
Numero	2
PulseTime	25,7
ForceMax	49,2
D_0200	30
D0000	78
D0200	12
D0300	28
D0600	25
D0900	23
D1200	20
D1350	20
D1500	21
D1800	17
D2100	16
D2250	15
TABLE Drops
Numero	3
PulseTime	25,8
ForceMax	49,0
D_0200	30
D0000	72
D0200	36
D0300	28
D0600	25
D0900	24
D1200	20
D1350	20
D1500	18
D1800	17
D2100	15
D2250	15
TABLE Drops
Numero	4
PulseTime	25,7
ForceMax	48,9
D_0200	30
D0000	62
D0200	11
D0300	28
D0600	25
D0900	23
D1200	20
D1350	20
D1500	21
D1800	17
D2100	15
D2250	15
TABLE ReportPoints
Numero	10
Latitude	51,271026
Longitude	0,602026
DOP	1,8
Chainage	180
Tair	9,8
Tsurf	7,3
Tman	0,0
Commentaire	
Date	20/12/2018 21:50
TABLE Drops
Numero	2
PulseTime	25,8
ForceMax	49,3
D_0200	29
D0000	35
D0200	26
D0300	28
D0600	25
D0900	23
D1200	20
D1350	20
D1500	21
D1800	17
D2100	15
D2250	14
TABLE Drops
Numero	3
PulseTime	25,8
ForceMax	49,1
D_0200	28
D0000	35
D0200	27
D0300	27
D0600	25
D0900	23
D1200	20
D1350	19
D1500	20
D1800	17
D2100	15
D2250	14
TABLE Drops
Numero	4
PulseTime	25,8
ForceMax	49,4
D_0200	29
D0000	36
D0200	35
D0300	27
D0600	25
D0900	23
D1200	20
D1350	20
D1500	21
D1800	17
D2100	15
D2250	15
TABLE ReportPoints
Numero	11
Latitude	51,271157
Longitude	0,601819
DOP	1,8
Chainage	201
Tair	9,9
Tsurf	7,3
Tman	0,0
Commentaire	
Date	20/12/2018 21:50
TABLE Drops
Numero	2
PulseTime	25,5
ForceMax	49,5
D_0200	28
D0000	39
D0200	31
D0300	27
D0600	25
D0900	23
D1200	21
D1350	21
D1500	20
D1800	18
D2100	16
D2250	16
TABLE Drops
Numero	3
PulseTime	25,5
ForceMax	49,5
D_0200	28
D0000	40
D0200	30
D0300	27
D0600	25
D0900	23
D1200	21
D1350	20
D1500	19
D1800	18
D2100	17
D2250	16
TABLE Drops
Numero	4
PulseTime	25,5
ForceMax	49,8
D_0200	29
D0000	58
D0200	23
D0300	27
D0600	25
D0900	23
D1200	21
D1350	21
D1500	22
D1800	18
D2100	16
D2250	16
