{
    "path": "/img/icons",

    "appleStatusBarStyle": "default",

    "scope": "/",
    "start_url": "/",

    "display": "standalone",
    "orientation": "portrait",

    "logging": false,
    "html": "icons.html",
    "pipeHTML": true,
    "replace": true,

    "icons": {
        "android": {
            "offset": 5
        },
        "appleIcon": {
            "offset": 5
        },
        "appleStartup": {
            "offset": 10
        },
        "coast": false,
        "favicons": true,
        "firefox": {
            "offset": 10,
            "overlayGlow": false
        },
        "windows": {
            "offset": 5
        },
        "yandex": false
    }
}
